%YAML 1.1
%TAG !u! tag:unity3d.com,2011:
--- !u!114 &11400000
MonoBehaviour:
  m_ObjectHideFlags: 0
  m_CorrespondingSourceObject: {fileID: 0}
  m_PrefabInstance: {fileID: 0}
  m_PrefabAsset: {fileID: 0}
  m_GameObject: {fileID: 0}
  m_Enabled: 1
  m_EditorHideFlags: 0
  m_Script: {fileID: 11500000, guid: 693ce2bc07ab3b846962c9be83775a2a, type: 3}
  m_Name: New Character Database 2
  m_EditorClassIdentifier: 
  character:
  - characterSprite: {fileID: 21300000, guid: 0d38b068be6d0094794255e464ec9153, type: 3}
  - characterSprite: {fileID: 21300000, guid: 164362ad64bdcd244b22234d398c9e9d, type: 3}
  - characterSprite: {fileID: 21300000, guid: 86cc128a0a458b24baff8bf76bdae630, type: 3}
  - characterSprite: {fileID: 21300000, guid: a3424c7c327023943828bcdee9d5f8d0, type: 3}
